[
	{
		"image":"~/_assets/caesar/images/award.svg",
		"title":"Feature 1",
		"slug":"feature-1",
		"description":"My Description",
		"city":"Milan",
		"year":"2021"
	},
	{
		"image":"~/_assets/caesar/images/award.svg",
		"title":"Feature 2",
		"slug":"feature-2",
		"description":"My Description",
		"city":"Milan",
		"year":"2021"
	},
	{
		"image":"~/_assets/caesar/images/award.svg",
		"title":"Feature 3",
		"slug":"feature-3",
		"description":"My Description",
		"city":"Milan",
		"year":"2021"
	}
]